{
	"author": {
		"email": "ethan.stern@composed.io",
		"name": "Ethan Stern",
		"url": "https://www.composed.io"
	},
	"bugs": "https://bitbucket.org/composedsystems/composed-af-messages/issues",
	"description": "Messaging extensions to the LabVIEW Actor Framework",
	"files": [
		"Source"
	],
	"keywords": [
		"Actor Framework",
		"AF",
		"Cycle",
		"Round-Trip",
		"Message",
		"Msg"
	],
	"license": "MIT",
	"lvversion": ">=17",
	"name": "@cs/actor-framework-messages",
	"repository": "https://bitbucket.org/composedsystems/composed-af-messages/src/master/",
	"version": "0.1.0"
}